Introducing trendyy | Josiah Parry
…
In order to retrieve the trend data, use get_interest(). Note, that this is dplyr friendly.

get_interest(candidate_trends)

## # A tibble: 715 x 7
##    date                 hits geo   time          keyword  gprop category   
##    <dttm>              <int> <chr> <chr>         <chr>    <chr> <chr>      
##  1 2019-01-01 00:00:00     3 world 2019-01-01 2… Joe Bid… web   All catego…
##  2 2019-01-02 00:00:00     3 world 2019-01-01 2… Joe Bid… web   All catego…
##  3 2019-01-03 00:00:00     3 world 2019-01-01 2… Joe Bid… web   All catego…
##  4 2019-01-04 00:00:00     2 world 2019-01-01 2… Joe Bid… web   All catego…
##  5 2019-01-05 00:00:00     2 world 2019-01-01 2… Joe Bid… web   All catego…
##  6 2019-01-06 00:00:00     2 world 2019-01-01 2… Joe Bid… web   All catego…
##  7 2019-01-07 00:00:00     5 world 2019-01-01 2… Joe Bid… web   All catego…
##  8 2019-01-08 00:00:00     2 world 2019-01-01 2… Joe Bid… web   All catego…
##  9 2019-01-09 00:00:00     2 world 2019-01-01 2… Joe Bid… web   All catego…
## 10 2019-01-10 00:00:00     2 world 2019-01-01 2… Joe Bid… web   All catego…
## # … with 705 more rows
…
