Coursera R-Programming: Week 2 Problems | Josiah Parry
…
  if (nrow(id_counts) < 1) {
    return(numeric(0))
  } else {
    print("All is well.")
  }

## [1] "All is well."

  specdata <- id_counts %>% 
    inner_join(specdata, by = "ID") %>%
    na.omit() 
  
  specdata

## # A tibble: 3,328 x 5
## # Groups:   ID [8]
##       ID     n Date       sulfate nitrate
##    <int> <int> <date>       <dbl>   <dbl>
##  1    35   509 2002-10-20   2.61    7.50 
##  2    35   509 2002-10-23   1.09    0.632
##  3    35   509 2002-10-26   2.06    5.88 
##  4    35   509 2002-10-29   1.80    5.72 
##  5    35   509 2002-11-01   1.12    3.39 
##  6    35   509 2002-11-13   1.92    6.74 
##  7    35   509 2002-11-16   2.06    8.85 
##  8    35   509 2002-11-23   1.99    4.03 
##  9    35   509 2002-11-28   0.875  10.1  
## 10    35   509 2002-12-04   1.82   19.6  
## # ... with 3,318 more rows
…
  correlations <- id_counts %>% 
    inner_join(specdata, by = "ID") %>% 
    nest(-ID) %>% 
    mutate(correlation = map(data, ~cor(.x$sulfate, .x$nitrate))) %>% 
    unnest(correlation)
  
  return(correlations)

}

We can now test our function against two different thresholds to see how it reacts.

pollutant_cor("../../data/specdata", 100)

## # A tibble: 254 x 3
##       ID data                 correlation
##    <int> <list>                     <dbl>
##  1     1 <tibble [117 × 4]>       -0.223 
##  2     2 <tibble [1,041 × 4]>     -0.0190
##  3     3 <tibble [243 × 4]>       -0.141 
##  4     4 <tibble [474 × 4]>       -0.0439
##  5     5 <tibble [402 × 4]>       -0.0682
##  6     6 <tibble [228 × 4]>       -0.124 
##  7     7 <tibble [442 × 4]>       -0.0759
##  8     8 <tibble [192 × 4]>       -0.160 
##  9     9 <tibble [275 × 4]>       -0.0868
## 10    10 <tibble [148 × 4]>        0.161 
## # ... with 244 more rows
…
