Finding an SPSS {haven} | Josiah Parry
…
Each variable forms a column. Got it. So this means that any thing that can help describe our observation should be a column. Say we have a table of survey respondents. In this case each row should be a respondent and each column should be a variable (or feature, or predictor, or x, or whatever) associate with that respondent. This could be something like age, birth date, or the respondents response to a survey question.

In the tidyverse style guide Hadley Wickham writes

Generally, variable names should be nouns and function names should be verbs. Strive for names that are concise and meaningful (this is not easy!).

I personaly try to extend this to column names as well. Feature names are important so I, as a researcher, can remember what is what. From my encounters with SPSS data, I’ve found that feature names can be rather uninformative e.g. “Q12.” Much like factors, columns may have associated information hidden somewhere within them.

We read in the personality data set from the Universit of Bath below.

# read in sav file with column labels
personality <- haven::read_sav("http://staff.bath.ac.uk/pssiw/stats2/personality.sav")
select(personality, 1:10)

## # A tibble: 459 x 10
##    PERS01 PERS02 PERS03 PERS04 PERS05 PERS06 PERS07 PERS08 PERS09 PERS10
##     <dbl>  <dbl>  <dbl>  <dbl>  <dbl>  <dbl>  <dbl>  <dbl>  <dbl>  <dbl>
##  1      5      4      5      1      4      3      3      1      2      3
##  2      1      1      5      2      1      2      5      1      5      1
##  3      4      1      5      3      3      4      5      3      1      4
##  4      4      2      5      1      4      3      4      4      4      5
##  5      2      3      5      1      2      4      5      2      3      3
##  6      1      1      5      4      3      4      4      2      1      4
##  7      3      2      5      1      2      1      1      2      5      4
##  8      5      2      4      2      4      1      4      3      3      5
##  9      5      1      4      3      2      1      4      4      2      3
## 10      4      1      5      1      4      3      4      1      5      4
## # … with 449 more rows
…
Again, yikes @ the labels. Let’s store these results into a vector so we can rename the original columns.

pers_labels <- map_chr(personality, get_label)

We can now change the names using setNames() from base R. We will then make the column headers tidy (personal definition of tidy column names) using janitor::clean_names().

setNames(personality, pers_labels) %>% 
  janitor::clean_names() %>% 
  select(1:5)

## # A tibble: 459 x 5
##    talkative finds_fault does_a_thorough_job depressed original
##        <dbl>       <dbl>               <dbl>     <dbl>    <dbl>
##  1         5           4                   5         1        4
##  2         1           1                   5         2        1
##  3         4           1                   5         3        3
##  4         4           2                   5         1        4
##  5         2           3                   5         1        2
##  6         1           1                   5         4        3
##  7         3           2                   5         1        2
##  8         5           2                   4         2        4
##  9         5           1                   4         3        2
## 10         4           1                   5         1        4
## # … with 449 more rows
…
  if (missing(pattern)) {
    names_to_replace <- rep(TRUE, ncol(df))
  } else {
    names_to_replace <- stringr::str_detect(names(col_labels), pattern)
  }
  
  colnames(df)[names_to_replace] <- janitor::make_clean_names(unlist(col_labels[names_to_replace]))

  haven::zap_label(df)
}

label_to_colname(personality) %>% 
  select(1:5)

## # A tibble: 459 x 5
##    talkative finds_fault does_a_thorough_job depressed original
##        <dbl>       <dbl>               <dbl>     <dbl>    <dbl>
##  1         5           4                   5         1        4
##  2         1           1                   5         2        1
##  3         4           1                   5         3        3
##  4         4           2                   5         1        4
##  5         2           3                   5         1        2
##  6         1           1                   5         4        3
##  7         3           2                   5         1        2
##  8         5           2                   4         2        4
##  9         5           1                   4         3        2
## 10         4           1                   5         1        4
## # … with 449 more rows

# heh.
label_to_colname(personality, "PERS37") %>% 
  select(37)

## # A tibble: 459 x 1
##    sometimes_rude
##             <dbl>
##  1              4
##  2              1
##  3              3
##  4              3
##  5              5
##  6              1
##  7              2
##  8              2
##  9              1
## 10              1
## # … with 449 more rows
…
