Introducing geniusR | Josiah Parry
…
This returns a tidy data frame with three columns:

title: track name

track_n: track number

text: lyrics

emotions_math <- genius_album(artist = "Margaret Glaspy", album = "Emotions and Math")

## Joining, by = c("track_title", "track_n", "track_url")

emotions_math

## # A tibble: 372 x 4
##    track_title       track_n lyric                                   line
##    <chr>               <int> <chr>                                  <int>
##  1 Emotions And Math       1 Oh when I got you by my side               1
##  2 Emotions And Math       1 Everything's alright                       2
##  3 Emotions And Math       1 Its just when your gone                    3
##  4 Emotions And Math       1 I start to snooze the alarm                4
##  5 Emotions And Math       1 Cause I stay up until 4 in the morning     5
##  6 Emotions And Math       1 Counting all the days 'til you're back     6
##  7 Emotions And Math       1 Shivering in an ice cold bath              7
##  8 Emotions And Math       1 Of emotions and math                       8
##  9 Emotions And Math       1 Oh it's a shame                            9
## 10 Emotions And Math       1 And I'm to blame                          10
## # ... with 362 more rows
…
## We will have an additional artist column that will have to be dropped
album_lyrics <- albums %>% 
  add_genius(artist, album)

## Joining, by = c("track_title", "track_n", "track_url")
## Joining, by = c("track_title", "track_n", "track_url")
## Joining, by = c("track_title", "track_n", "track_url")
## Joining, by = c("track_title", "track_n", "track_url")

## Joining, by = c("artist", "album")

album_lyrics

## # A tibble: 4,552 x 6
##    artist         album                  track_title  track_n lyric   line
##    <chr>          <chr>                  <chr>          <int> <chr>  <int>
##  1 Kendrick Lamar Good Kid, M.A.A.D City Sherane a.k…       1 Lord …     1
##  2 Kendrick Lamar Good Kid, M.A.A.D City Sherane a.k…       1 And I…     2
##  3 Kendrick Lamar Good Kid, M.A.A.D City Sherane a.k…       1 I bel…     3
##  4 Kendrick Lamar Good Kid, M.A.A.D City Sherane a.k…       1 I bel…     4
##  5 Kendrick Lamar Good Kid, M.A.A.D City Sherane a.k…       1 I wil…     5
##  6 Kendrick Lamar Good Kid, M.A.A.D City Sherane a.k…       1 And b…     6
##  7 Kendrick Lamar Good Kid, M.A.A.D City Sherane a.k…       1 I rec…     7
##  8 Kendrick Lamar Good Kid, M.A.A.D City Sherane a.k…       1 And t…     8
##  9 Kendrick Lamar Good Kid, M.A.A.D City Sherane a.k…       1 Thank…     9
## 10 Kendrick Lamar Good Kid, M.A.A.D City Sherane a.k…       1 In Je…    10
## # ... with 4,542 more rows

Song Lyrics

genius_lyrics()

Getting lyrics to a single song is pretty easy. Let’s get in our ELEMENT. and checkout DNA. by Kendrick Lamar. But first, note that the genius_lyrics() function takes two main arguments, artist and song. Be sure to spell the name of the artist and the song correctly.

DNA <- genius_lyrics(artist = "Kendrick Lamar", song = "DNA.")

DNA

## # A tibble: 87 x 3
##    track_title lyric                                                  line
##    <chr>       <chr>                                                 <int>
##  1 DNA.        I got, I got, I got, I got—                               1
##  2 DNA.        Loyalty, got royalty inside my DNA                        2
##  3 DNA.        Cocaine quarter piece, got war and peace inside my D…     3
##  4 DNA.        I got power, poison, pain and joy inside my DNA           4
##  5 DNA.        I got hustle though, ambition flow inside my DNA          5
##  6 DNA.        I was born like this, since one like this, immaculat…     6
##  7 DNA.        I transform like this, perform like this, was Yeshua…     7
##  8 DNA.        I don't contemplate, I meditate, then off your fucki…     8
##  9 DNA.        This that put-the-kids-to-bed                             9
## 10 DNA.        This that I got, I got, I got, I got—                    10
## # ... with 77 more rows
…
