Google Trends for Campaigns | Josiah Parry
…
Trendy creates an object of class trendy see class(candidate_trends) trendy. There are a number of accessor functions. We will use get_interest() and get_related_queries(). See the documentation of the others.

To access to relative popularity, we will use get_interest(trendy).

popularity <- get_interest(candidate_trends)

popularity

## # A tibble: 65 x 7
##    date                 hits geo   time          keyword  gprop category   
##    <dttm>              <int> <chr> <chr>         <chr>    <chr> <chr>      
##  1 2019-05-28 00:00:00    58 world 2019-05-28 2… Joe Bid… web   All catego…
##  2 2019-05-29 00:00:00    71 world 2019-05-28 2… Joe Bid… web   All catego…
##  3 2019-05-30 00:00:00    61 world 2019-05-28 2… Joe Bid… web   All catego…
##  4 2019-05-31 00:00:00    43 world 2019-05-28 2… Joe Bid… web   All catego…
##  5 2019-06-01 00:00:00    34 world 2019-05-28 2… Joe Bid… web   All catego…
##  6 2019-06-02 00:00:00    36 world 2019-05-28 2… Joe Bid… web   All catego…
##  7 2019-06-03 00:00:00    35 world 2019-05-28 2… Joe Bid… web   All catego…
##  8 2019-06-04 00:00:00    43 world 2019-05-28 2… Joe Bid… web   All catego…
##  9 2019-06-05 00:00:00    53 world 2019-05-28 2… Joe Bid… web   All catego…
## 10 2019-06-06 00:00:00    49 world 2019-05-28 2… Joe Bid… web   All catego…
## # … with 55 more rows

For related queries we will use get_related_queries(trendy). Note that you can either pipe the object or pass it directly.

candidate_trends %>% 
  get_related_queries() %>% 
  # picking queries for a random candidate
  filter(keyword == sample(candidates, 1))

## # A tibble: 36 x 5
##    subject related_queries value                keyword   category      
##    <chr>   <chr>           <chr>                <chr>     <chr>         
##  1 100     top             trump                Joe Biden All categories
##  2 50      top             joe biden 2020       Joe Biden All categories
##  3 44      top             bernie sanders       Joe Biden All categories
##  4 39      top             donald trump         Joe Biden All categories
##  5 36      top             joe biden age        Joe Biden All categories
##  6 30      top             joe biden news       Joe Biden All categories
##  7 24      top             how old is joe biden Joe Biden All categories
##  8 17      top             joe biden abortion   Joe Biden All categories
##  9 17      top             joe biden polls      Joe Biden All categories
## 10 16      top             creepy joe biden     Joe Biden All categories
## # … with 26 more rows
…
