Josiah Parry
…
  req <- POST(b_url, body = list(req = upload_file(file)))
  
  res <- content(req, type = "text/json") %>% 
    jsonlite::fromJSON() %>% 
    tibble::as_tibble()
  
  res
  
}

You’ve created a wrapper to your API! Now you have a micro-service running and accessible via an R wrapper.

post_excel("data/test.xls")

## # A tibble: 52 x 27
##    statefip costelec costgas costwatr costfuel condofee  rent proptx99
##       <int>    <int>   <int>    <int>    <int>    <int> <int>    <int>
##  1        1     7440    5760     3100     3900     1100  2400       66
##  2        2     7080    6240     3400     7100      690  2800       69
##  3        4     7320    4800     3800     2800     1000  2900       69
##  4        5     6600    5880     3100     3300      870  2000       67
##  5        6     7800    5400     4100     2900     1200  3900       69
##  6        8     6240    5520     3300     2400      920  3200       69
##  7        9     7800    6840     3100     5700      940  3300       69
##  8       10     6720    6360     2800     3500      950  2800       69
##  9       11     6480    5280     3600     4300     1400  3900       69
## 10       12     6720    3480     3400     3600     1400  3300       69
## # … with 42 more rows, and 19 more variables: propinsr <int>,
## #   mortamt1 <int>, mortamt2 <int>, moblhome <int>, rooms <int>,
## #   bedrooms <int>, valueh <int>, incwage <int>, incbus00 <int>,
## #   incinvst <int>, incretir <int>, incother <int>, incwelfr <int>,
## #   incsupp <int>, incss <int>, age <int>, trantime <int>,
## #   incbus00_min <int>, incincst_min <int>
…
