Josiah Parry
…
This is much better! But based on visual inspection the column headers are not properly matched. There are a few things that need to be sorted out: there are two date columns, there are commas and percents where numeric columns should be, the column headers are a little messy, and the table isn’t a tibble (this is just personal preference).

We will handle the final two issues first as they are easiest to deal with. The function clean_names() from janitor will handle the column headers, and as_tibble() will coerce the data.frame into a proper tibble. Save this semi-clean tibble into an object called polls.

polls <- session %>% 
  html_node(".polls-table.tracker") %>% 
  html_table(fill = TRUE) %>% 
  janitor::clean_names() %>% 
  as_tibble()

polls

## # A tibble: 116 x 59
##    x     dates pollster sample sample_2 biden sanders harris warren
##    <chr> <chr> <chr>    <chr>  <chr>    <chr> <chr>   <chr>  <chr> 
##  1 •     Jun … Jun 6-1… A-Qui… 503      RV    30%     19%    7%    
##  2 •     Jun … Jun 3-9… B-Mor… 17,012   LV    37%     19%    7%    
##  3 •     May … May 29-… B+Ips… 2,271    RV    31%     14%    6%    
##  4 •     May … May 29-… B+Ips… 2,525    A     30%     15%    6%    
##  5 •     Jun … Jun 2-4… BYouG… 500      RV    27%     15%    9%    
##  6 •     Jun … Jun 2-4… BYouG… 550      A     27%     16%    8%    
##  7 •     Jun … Jun 1-2… C+Har… 431      RV    35%     16%    4%    
##  8 •     May … May 27-… B-Mor… 16,587   LV    38%     19%    7%    
##  9 •     May … May 28-… A-CNN… 412      RV    32%     18%    8%    
## 10 •     May … May 29-… C+Har… 471      RV    36%     17%    8%    
## # … with 106 more rows, and 50 more variables: o_rourke <chr>,
## #   buttigieg <chr>, booker <chr>, klobuchar <chr>, castro <chr>,
## #   yang <chr>, gillibrand <chr>, hickenlooper <chr>, gabbard <chr>,
## #   delaney <chr>, inslee <chr>, ryan <chr>, bullock <chr>,
## #   de_blasio <chr>, bennet <chr>, williamson <chr>, gravel <chr>,
## #   swalwell <chr>, moulton <chr>, messam <chr>, h_clinton <chr>,
## #   bloomberg <chr>, m_obama <chr>, brown <chr>, kerry <chr>,
## #   abrams <chr>, holder <chr>, mc_auliffe <chr>, winfrey <chr>,
## #   ojeda <chr>, trump <chr>, cuomo <chr>, avenatti <chr>, kennedy <chr>,
…
Now we can try implementing the hacky solution. Here we will deselect the first column and reset the names using setNames(). Following, we will use the mutate_at() variant to remove the percent sign from every candidate column and coerce them into integer columns. Here we will specify which variables to not mutate at within vars().

polls %>% 
  select(-1) %>%  
  setNames(new_names)%>%
  select(-1) %>%
  mutate_at(vars(-c("dates", "pollster", "sample", "sample_2")), 
            ~as.integer(str_remove(., "%")))

## Warning in (structure(function (..., .x = ..1, .y = ..2, . = ..1) : NAs
## introduced by coercion

## # A tibble: 116 x 57
##    dates pollster sample sample_2 biden sanders harris warren o_rourke
##    <chr> <chr>    <chr>  <chr>    <int>   <int>  <int>  <int>    <int>
##  1 Jun … A-Quinn… 503    RV          30      19      7     15        3
##  2 Jun … B-Morni… 17,012 LV          37      19      7     11        4
##  3 May … B+Ipsos  2,271  RV          31      14      6      9        3
##  4 May … B+Ipsos  2,525  A           30      15      6      8        4
##  5 Jun … BYouGov  500    RV          27      15      9     12        2
##  6 Jun … BYouGov  550    A           27      16      8     11        2
##  7 Jun … C+Harri… 431    RV          35      16      4      5        4
##  8 May … B-Morni… 16,587 LV          38      19      7     10        4
##  9 May … A-CNN/S… 412    RV          32      18      8      7        5
## 10 May … C+Harri… 471    RV          36      17      8      5        4
## # … with 106 more rows, and 48 more variables: buttigieg <int>,
## #   booker <int>, klobuchar <int>, castro <int>, yang <int>,
## #   gillibrand <int>, hickenlooper <int>, gabbard <int>, delaney <int>,
## #   inslee <int>, ryan <int>, bullock <int>, de_blasio <int>,
## #   bennet <int>, williamson <int>, gravel <int>, swalwell <int>,
## #   moulton <int>, messam <int>, h_clinton <int>, bloomberg <int>,
## #   m_obama <int>, brown <int>, kerry <int>, abrams <int>, holder <int>,
## #   mc_auliffe <int>, winfrey <int>, ojeda <int>, trump <int>,
## #   cuomo <int>, avenatti <int>, kennedy <int>, patrick <int>,
…
Now we must tidy the data. We will use tidyr::gather() to transform the data from wide to long. In short, gather takes the column headers (the key argument) and creates a new variable from the values of the columns (the value argument). In this case, we will create a new column called candidate from the column headers and a second column called points which are a candidates polling percentage. Next we deselect any columns that we do not want to be gathered.

polls %>% 
  select(-1) %>% 
  setNames(new_names)%>%
  select(-1) %>%
  mutate_at(vars(-c("dates", "pollster", "sample", "sample_2")),
            ~as.integer(str_remove(., "%"))) %>% 
  gather(candidate, points, -dates, -pollster, -sample, -sample_2)

## Warning in (structure(function (..., .x = ..1, .y = ..2, . = ..1) : NAs
## introduced by coercion

## # A tibble: 6,148 x 6
##    dates             pollster              sample sample_2 candidate points
##    <chr>             <chr>                 <chr>  <chr>    <chr>      <int>
##  1 Jun 6-10, 2019    A-Quinnipiac Univers… 503    RV       biden         30
##  2 Jun 3-9, 2019     B-Morning Consult     17,012 LV       biden         37
##  3 May 29-Jun 5, 20… B+Ipsos               2,271  RV       biden         31
##  4 May 29-Jun 5, 20… B+Ipsos               2,525  A        biden         30
##  5 Jun 2-4, 2019     BYouGov               500    RV       biden         27
##  6 Jun 2-4, 2019     BYouGov               550    A        biden         27
##  7 Jun 1-2, 2019     C+HarrisX             431    RV       biden         35
##  8 May 27-Jun 2, 20… B-Morning Consult     16,587 LV       biden         38
##  9 May 28-31, 2019   A-CNN/SSRS            412    RV       biden         32
## 10 May 29-30, 2019   C+Harris Interactive  471    RV       biden         36
## # … with 6,138 more rows
…
## Warning in (structure(function (..., .x = ..1, .y = ..2, . = ..1) : NAs
## introduced by coercion

polls_tidy

## # A tibble: 6,148 x 6
##    dates          pollster           sample sample_2       candidate points
##    <chr>          <chr>               <int> <chr>          <chr>      <int>
##  1 Jun 6-10, 2019 A-Quinnipiac Univ…    503 Registered Vo… biden         30
##  2 Jun 3-9, 2019  B-Morning Consult   17012 Likely Voters  biden         37
##  3 May 29-Jun 5,… B+Ipsos              2271 Registered Vo… biden         31
##  4 May 29-Jun 5,… B+Ipsos              2525 Adults         biden         30
##  5 Jun 2-4, 2019  BYouGov               500 Registered Vo… biden         27
##  6 Jun 2-4, 2019  BYouGov               550 Adults         biden         27
##  7 Jun 1-2, 2019  C+HarrisX             431 Registered Vo… biden         35
##  8 May 27-Jun 2,… B-Morning Consult   16587 Likely Voters  biden         38
##  9 May 28-31, 20… A-CNN/SSRS            412 Registered Vo… biden         32
## 10 May 29-30, 20… C+Harris Interact…    471 Registered Vo… biden         36
## # … with 6,138 more rows
…
## [1] "2019-05-30"

We can use this new function to create two new columns poll_start and poll_end using mutate(). Following this we can deselect the original dates column, remove any observations missing a points value, remove duplicates using distinct(), and save this to polls_clean.

polls_clean <- polls_tidy %>% 
  mutate(poll_start = clean_date(dates, "first"),
         poll_end = clean_date(dates, "second")) %>% 
  select(-dates) %>% 
  filter(!is.na(points)) %>% 
  distinct()

polls_clean

## # A tibble: 1,955 x 7
##    pollster       sample sample_2    candidate points poll_start poll_end  
##    <chr>           <int> <chr>       <chr>      <int> <date>     <date>    
##  1 A-Quinnipiac …    503 Registered… biden         30 2019-06-06 2019-06-10
##  2 B-Morning Con…  17012 Likely Vot… biden         37 2019-06-06 2019-06-10
##  3 B+Ipsos          2271 Registered… biden         31 2019-06-06 2019-06-10
##  4 B+Ipsos          2525 Adults      biden         30 2019-06-06 2019-06-10
##  5 BYouGov           500 Registered… biden         27 2019-06-06 2019-06-10
##  6 BYouGov           550 Adults      biden         27 2019-06-06 2019-06-10
##  7 C+HarrisX         431 Registered… biden         35 2019-06-06 2019-06-10
##  8 B-Morning Con…  16587 Likely Vot… biden         38 2019-06-06 2019-06-10
##  9 A-CNN/SSRS        412 Registered… biden         32 2019-06-06 2019-06-10
## 10 C+Harris Inte…    471 Registered… biden         36 2019-06-06 2019-06-10
## # … with 1,945 more rows
…
## Parsed with column specification:
## cols(
##   pollster = col_character(),
##   sample = col_double(),
##   sample_2 = col_character(),
##   candidate = col_character(),
##   points = col_double(),
##   poll_start = col_date(format = ""),
##   poll_end = col_date(format = "")
## )

old_polls

## # A tibble: 1,564 x 7
##    pollster       sample sample_2    candidate points poll_start poll_end  
##    <chr>           <dbl> <chr>       <chr>      <dbl> <date>     <date>    
##  1 C+HarrisX         370 Registered… klobuchar      2 2019-06-06 2019-06-10
##  2 C+HarrisX         448 Registered… gillibra…      1 2019-06-06 2019-06-10
##  3 B-Morning Con…  11627 Likely Vot… harris        13 2019-06-06 2019-06-10
##  4 B-Morning Con…    699 Registered… delaney        0 2019-06-06 2019-06-10
##  5 C+HarrisX         743 Registered… williams…      1 2019-06-06 2019-06-10
##  6 A-Quinnipiac …    559 Registered… gabbard        0 2019-06-06 2019-06-10
##  7 B-Morning Con…  14250 Likely Vot… gillibra…      2 2019-06-06 2019-06-10
##  8 A-Quinnipiac …    559 Registered… gillibra…      0 2019-06-06 2019-06-10
##  9 B-Morning Con…  14250 Likely Vot… harris         6 2019-06-06 2019-06-10
## 10 A+Monmouth Un…    330 Registered… warren         8 2019-06-06 2019-06-10
## # … with 1,554 more rows

updated_polls <- bind_rows(old_polls, polls_clean) %>% 
  distinct()

updated_polls

## # A tibble: 1,955 x 7
##    pollster       sample sample_2    candidate points poll_start poll_end  
##    <chr>           <dbl> <chr>       <chr>      <dbl> <date>     <date>    
##  1 C+HarrisX         370 Registered… klobuchar      2 2019-06-06 2019-06-10
##  2 C+HarrisX         448 Registered… gillibra…      1 2019-06-06 2019-06-10
##  3 B-Morning Con…  11627 Likely Vot… harris        13 2019-06-06 2019-06-10
##  4 B-Morning Con…    699 Registered… delaney        0 2019-06-06 2019-06-10
##  5 C+HarrisX         743 Registered… williams…      1 2019-06-06 2019-06-10
##  6 A-Quinnipiac …    559 Registered… gabbard        0 2019-06-06 2019-06-10
##  7 B-Morning Con…  14250 Likely Vot… gillibra…      2 2019-06-06 2019-06-10
##  8 A-Quinnipiac …    559 Registered… gillibra…      0 2019-06-06 2019-06-10
##  9 B-Morning Con…  14250 Likely Vot… harris         6 2019-06-06 2019-06-10
## 10 A+Monmouth Un…    330 Registered… warren         8 2019-06-06 2019-06-10
## # … with 1,945 more rows
…
